{
  "htmlElements": {
    "tags": [
      "a",
      "base",
      "blockquote",
      "body",
      "br",
      "button",
      "circle",
      "cite",
      "code",
      "dd",
      "del",
      "details",
      "div",
      "dl",
      "dt",
      "em",
      "figcaption",
      "figure",
      "footer",
      "form",
      "g",
      "h1",
      "h2",
      "h3",
      "h4",
      "h5",
      "h6",
      "head",
      "header",
      "hr",
      "html",
      "i",
      "iframe",
      "img",
      "input",
      "label",
      "li",
      "link",
      "main",
      "mask",
      "meta",
      "nav",
      "noscript",
      "ol",
      "option",
      "p",
      "path",
      "picture",
      "pre",
      "script",
      "section",
      "select",
      "small",
      "source",
      "span",
      "strong",
      "style",
      "summary",
      "svg",
      "table",
      "tbody",
      "td",
      "textarea",
      "th",
      "thead",
      "title",
      "tr",
      "ul"
    ],
    "classes": [
      "accordion",
      "accordion-body",
      "accordion-button",
      "accordion-collapse",
      "accordion-header",
      "accordion-item",
      "active",
      "align-items-center",
      "align-items-lg-center",
      "align-self-center",
      "arrow",
      "banner",
      "bg-light",
      "bg-primary",
      "bg-transparent",
      "bg-white",
      "block",
      "block-right-image",
      "border",
      "border-0",
      "border-default",
      "border-top",
      "brand-carousel",
      "brand-item",
      "btn",
      "btn-link",
      "btn-outline-primary",
      "btn-primary",
      "btn-sm",
      "card",
      "card-body",
      "card-footer",
      "card-img-top",
      "check-mark",
      "col-12",
      "col-6",
      "col-lg-10",
      "col-lg-12",
      "col-lg-3",
      "col-lg-4",
      "col-lg-5",
      "col-lg-6",
      "col-lg-7",
      "col-lg-8",
      "col-lgy-5",
      "col-md-10",
      "col-md-5",
      "col-md-6",
      "col-md-7",
      "col-sm-6",
      "col-xl-10",
      "col-xl-11",
      "col-xl-3",
      "col-xl-4",
      "col-xl-5",
      "col-xl-6",
      "col-xl-7",
      "col-xl-8",
      "col-xl-9",
      "collapse",
      "collapsed",
      "container",
      "container-delta",
      "content",
      "counter",
      "d-block",
      "d-flex",
      "d-inline-block",
      "d-inline-flex",
      "d-lg-inline-block",
      "d-lg-none",
      "d-none",
      "d-sm-flex",
      "display-3",
      "dropdown",
      "dropdown-icon",
      "dropdown-item",
      "dropdown-lg",
      "dropdown-menu",
      "dropdown-subtitle",
      "dropdown-toggle",
      "dsq-brlink",
      "fa-angle-left",
      "fa-angle-right",
      "fa-arrow-right",
      "fa-bars",
      "fa-bullhorn",
      "fa-calendar-alt",
      "fa-campground",
      "fa-chart-bar",
      "fa-circle-question",
      "fa-clock",
      "fa-code",
      "fa-dice",
      "fa-dice-d6",
      "fa-dot-circle",
      "fa-earth-americas",
      "fa-envelope",
      "fa-facebook",
      "fa-facebook-f",
      "fa-fighter-jet",
      "fa-file-signature",
      "fa-hands-helping",
      "fa-headphones-alt",
      "fa-headset",
      "fa-instagram",
      "fa-laptop-house",
      "fa-linkedin",
      "fa-linkedin-in",
      "fa-mixcloud",
      "fa-play",
      "fa-search",
      "fa-signature",
      "fa-solid",
      "fa-sync",
      "fa-thumbs-up",
      "fa-tty",
      "fa-twitter",
      "fa-user-circle",
      "fa-users",
      "fa-users-line",
      "fa-xmark",
      "fa-youtube",
      "fab",
      "faq-content",
      "far",
      "fas",
      "feature-card",
      "first-element",
      "fit-cover",
      "flex-wrap",
      "footer-list",
      "form-control",
      "form-group",
      "form-select",
      "fw-500",
      "fw-bold",
      "g-4",
      "g-5",
      "g-6",
      "gx-6",
      "gx-md-5",
      "gx-sm-5",
      "gy-4",
      "gy-5",
      "gy-6",
      "h-100",
      "h2",
      "h3",
      "h4",
      "h5",
      "h6",
      "has-video",
      "highlight",
      "how-it-works",
      "icon",
      "img",
      "img-center",
      "img-fluid",
      "info",
      "input-group",
      "input-group-text",
      "is-hoverable",
      "justify-content-between",
      "justify-content-center",
      "justify-content-start",
      "last-element",
      "lead",
      "list-inline",
      "list-inline-item",
      "list-unstyled",
      "logo-disqus",
      "m-1",
      "m-2",
      "m-3",
      "masker",
      "mb-0",
      "mb-1",
      "mb-2",
      "mb-3",
      "mb-4",
      "mb-5",
      "mb-lg-0",
      "mb-lg-3",
      "mb-md-0",
      "mb-xl-0",
      "me-0",
      "me-1",
      "me-2",
      "me-3",
      "me-lg-5",
      "moon",
      "ms-0",
      "ms-1",
      "ms-lg-4",
      "ms-lg-5",
      "mt-0",
      "mt-2",
      "mt-3",
      "mt-4",
      "mt-5",
      "mt-lg-0",
      "mt-lg-4",
      "mt-xl-0",
      "mx-1",
      "mx-auto",
      "my-0",
      "my-1",
      "my-3",
      "my-5",
      "my-lg-5",
      "nav-item",
      "nav-link",
      "navbar",
      "navbar-brand",
      "navbar-collapse",
      "navbar-expand-lg",
      "navbar-light",
      "navbar-nav",
      "navbar-toggler",
      "navigation",
      "note",
      "notice",
      "notice-body",
      "notice-head",
      "opacity-50",
      "order-0",
      "order-1",
      "order-2",
      "order-lg-0",
      "order-lg-1",
      "order-lg-2",
      "overflow-hidden",
      "p-0",
      "p-1",
      "p-2",
      "p-3",
      "p-4",
      "p-5",
      "page-item",
      "page-link",
      "pagination",
      "pb-0",
      "pb-2",
      "pb-4",
      "pb-5",
      "pe-0",
      "pe-lg-5",
      "pe-lgy-5",
      "pe-xl-3",
      "position-relative",
      "preloader",
      "products-card",
      "ps-0",
      "ps-lg-5",
      "pt-0",
      "pt-5",
      "px-0",
      "px-4",
      "px-5",
      "px-lg-0",
      "px-lg-4",
      "px-lg-6",
      "py-4",
      "py-5",
      "recommended",
      "rounded-1",
      "rounded-2",
      "rounded-3",
      "rounded-circle",
      "rounded-sm",
      "row",
      "section",
      "section-title",
      "shadow",
      "shadow-none",
      "share-this-post",
      "show",
      "sidebar-widget",
      "single-slider",
      "small",
      "social-icons",
      "social-icons-alt",
      "stretched-link",
      "sun",
      "swiper",
      "swiper-pagination",
      "swiper-slide",
      "swiper-wrapper",
      "table-of-content",
      "testimonial-carousel",
      "text-center",
      "text-danger",
      "text-dark",
      "text-dark-50",
      "text-lg-end",
      "text-lg-start",
      "text-md-end",
      "text-md-left",
      "text-md-start",
      "text-muted",
      "text-primary",
      "text-reset",
      "text-white",
      "text-xl-start",
      "theme-switcher",
      "tip",
      "title",
      "user-image",
      "user-info",
      "video-loader",
      "video-loader-btn",
      "video-thumb",
      "w-100",
      "warning"
    ],
    "ids": [
      "TableOfContents",
      "basic-addon1",
      "blockquote",
      "caption-an image caption",
      "career_form",
      "challenge",
      "client",
      "code-and-syntax-highlighting",
      "concept",
      "cv",
      "de",
      "disqus_thread",
      "email",
      "emphasis",
      "en",
      "faq",
      "for-design-teams",
      "for-marketing-teams",
      "for-product--engineering",
      "for-search-engine-optimization",
      "gathering-of-personal-information",
      "heading-1",
      "heading-1436376c3519cf40de92c6d6a9bd96c951b8563d_",
      "heading-2",
      "heading-202f9ad39223c3254b19b10ed0e635bc52686306_",
      "heading-3",
      "heading-39dd7905349056cac956ae89b352f2533070819d_",
      "heading-4",
      "heading-418184b222b830a0eda6a835a2506977ec36e992_",
      "heading-5",
      "heading-5547386a6e7381108d294d5eebe26d464fcd8c2c_",
      "heading-6",
      "heading-6fdf4e409fa307b9c035ff296c8e9a714f3784cf_",
      "heading-a4320b0e4ef1be832ed10149c050ee0830fa6bd7_",
      "id-1436376c3519cf40de92c6d6a9bd96c951b8563d_",
      "id-202f9ad39223c3254b19b10ed0e635bc52686306_",
      "id-39dd7905349056cac956ae89b352f2533070819d_",
      "id-418184b222b830a0eda6a835a2506977ec36e992_",
      "id-5547386a6e7381108d294d5eebe26d464fcd8c2c_",
      "id-6fdf4e409fa307b9c035ff296c8e9a714f3784cf_",
      "id-a4320b0e4ef1be832ed10149c050ee0830fa6bd7_",
      "image",
      "inline-html",
      "last-name",
      "link",
      "m",
      "name",
      "navigation",
      "open-position",
      "ordered-list",
      "paragraph",
      "privacy-policy-changes",
      "protection-of--personal--information",
      "requirements",
      "responsibilities",
      "responsibility-of-contributors",
      "results",
      "search_faq",
      "select-language",
      "solution",
      "some-of-the-high-impact-opportunities-youll-tackle",
      "tables",
      "this-opportunity-is-for-you-if-you-haveare",
      "unordered-list",
      "voor-marketingteams",
      "voor-ontwerpteams",
      "voor-product--techniek",
      "voor-zoekmachine-optimalisatie",
      "warum-sie-uns-kontaktieren-sollten",
      "what-is-the-role",
      "why-join-deltas-people-team",
      "why-you-should-contact-us",
      "youtube-video",
      "zh-cn",
      "为什么要联系我们"
    ]
  }
}
